{
  "images" : [
    {
      "idiom" : "universal",
      "filename" : "Group 1404 (1)-1.png",
      "scale" : "1x"
    },
    {
      "idiom" : "universal",
      "filename" : "Group 1404home_purble-1.png",
      "scale" : "2x"
    },
    {
      "idiom" : "universal",
      "filename" : "Group 1404home_purble.png",
      "scale" : "3x"
    }
  ],
  "info" : {
    "version" : 1,
    "author" : "xcode"
  }
}